<?xml version="1.0" encoding="UTF-8" standalone="no"?>
<!-- Created with Inkscape (http://www.inkscape.org/) -->

<svg
   xmlns:dc="http://purl.org/dc/elements/1.1/"
   xmlns:cc="http://creativecommons.org/ns#"
   xmlns:rdf="http://www.w3.org/1999/02/22-rdf-syntax-ns#"
   xmlns:svg="http://www.w3.org/2000/svg"
   xmlns="http://www.w3.org/2000/svg"
   xmlns:sodipodi="http://sodipodi.sourceforge.net/DTD/sodipodi-0.dtd"
   xmlns:inkscape="http://www.inkscape.org/namespaces/inkscape"
   width="428.75"
   height="428.75"
   id="svg3022"
   version="1.1"
   inkscape:version="0.48.3.1 r9886"
   sodipodi:docname="bird_24.svg"
   inkscape:export-filename="/home/raraujo/Projectos/boidsvisualizer/BoidsVisualizer-android/res/drawable-xxxhdpi/ic_launcher.png"
   inkscape:export-xdpi="40.303207"
   inkscape:export-ydpi="40.303207">
  <defs
     id="defs3024" />
  <sodipodi:namedview
     pagecolor="#ffffff"
     bordercolor="#666666"
     borderopacity="1.0"
     inkscape:pageopacity="0.0"
     inkscape:pageshadow="2"
     inkscape:zoom="0.8"
     inkscape:cx="210"
     inkscape:cy="210"
     inkscape:document-units="pt"
     inkscape:current-layer="layer1"
     id="namedview3026"
     showgrid="false"
     inkscape:window-width="823"
     inkscape:window-height="670"
     inkscape:window-x="1783"
     inkscape:window-y="158"
     inkscape:window-maximized="0"
     units="pt" />
  <metadata
     id="metadata3028">
    <rdf:RDF>
      <cc:Work
         rdf:about="">
        <dc:format>image/svg+xml</dc:format>
        <dc:type
           rdf:resource="http://purl.org/dc/dcmitype/StillImage" />
        <dc:title></dc:title>
      </cc:Work>
    </rdf:RDF>
  </metadata>
  <g
     inkscape:label="Layer 1"
     inkscape:groupmode="layer"
     id="layer1"
     transform="translate(0,3.75)">
    <path
       sodipodi:nodetypes="cccccccccc"
       inkscape:connector-curvature="0"
       id="path3836"
       d="M 210.00551,301.72502 208.89788,336.61543 154.62392,349.3532 207.79026,341.59978 169.57695,355.99898 207.79026,346.03031 178.99181,372.05966 216.65131,343.26121 213.88938,332.73927 219.97422,300.61738"
       style="fill:#808000;fill-opacity:1;stroke:none" />
    <g
       transform="matrix(1.6641,0,0,1.6641,-488.04345,-184.33956)"
       id="g3025">
      <path
         transform="matrix(0.41863214,0,0,0.68238042,258.66407,37.99631)"
         style="fill:#ffffff;fill-opacity:1;stroke:#000000;stroke-width:3;stroke-miterlimit:4;stroke-opacity:1"
         d="M 285.7143,223.07646 C 285.7143,239.25052 275.8006,252.36218 263.57144,252.36218 251.34228,252.36218 241.42859,239.25052 241.42859,223.07646 241.42859,206.90241 251.34228,193.79075 263.57144,193.79075 275.8006,193.79075 285.7143,206.90241 285.7143,223.07646 z"
         id="path3027"
         inkscape:connector-curvature="0" />
      <path
         style="fill:#000000;fill-opacity:1;stroke:#000000;stroke-width:1.60343301;stroke-miterlimit:4;stroke-opacity:1;stroke-dasharray:none"
         d="M 365.55042,172.21638 C 362.14037,175.16782 359.73792,181.10943 359.73792,189.51619 359.73792,200.55305 363.8684,209.48494 368.98792,209.48494 374.10744,209.48494 378.26917,200.55305 378.26917,189.51619 378.26917,188.53056 378.20807,187.55736 378.14417,186.60994 377.07656,187.53485 375.92773,188.07869 374.70667,188.07869 370.0422,188.07869 366.19973,181.88438 365.55042,172.21638 z"
         id="path3029"
         inkscape:connector-curvature="0"
         sodipodi:nodetypes="cssscsc" />
    </g>
    <path
       style="fill:#0000ff;fill-opacity:1;stroke:#000000;stroke-width:4.99230003;stroke-miterlimit:4;stroke-opacity:1"
       d="M 320.23369,190.44793 C 320.23369,261.34662 272.87026,318.82136 214.44448,318.82136 156.0187,318.82136 108.65526,261.34662 108.65526,190.44793 108.65526,119.54923 156.0187,62.074491 214.44448,62.074491 272.87026,62.074491 320.23369,119.54923 320.23369,190.44793 z"
       id="path3005"
       inkscape:connector-curvature="0" />
    <path
       style="fill:#ecec3d;fill-opacity:1;stroke:#000000;stroke-width:6.29269218;stroke-miterlimit:4;stroke-opacity:1"
       d="M 129.76159,157.16593 35.335281,185.69336 156.20097,214.22077"
       id="path3011"
       inkscape:connector-curvature="0" />
    <g
       id="g3021"
       transform="matrix(1.6641,0,0,1.6641,-421.47945,-179.585)">
      <path
         transform="matrix(0.41863214,0,0,0.68238042,258.66407,37.99631)"
         style="fill:#ffffff;fill-opacity:1;stroke:#000000;stroke-width:3;stroke-miterlimit:4;stroke-opacity:1"
         d="M 285.7143,223.07646 C 285.7143,239.25052 275.8006,252.36218 263.57144,252.36218 251.34228,252.36218 241.42859,239.25052 241.42859,223.07646 241.42859,206.90241 251.34228,193.79075 263.57144,193.79075 275.8006,193.79075 285.7143,206.90241 285.7143,223.07646 z"
         id="path3018"
         inkscape:connector-curvature="0" />
      <path
         inkscape:connector-curvature="0"
         id="path3003"
         d="M 365.80296,172.21638 C 362.39291,175.16782 359.73792,181.10943 359.73792,189.51619 359.73792,200.55305 363.8684,209.48494 368.98792,209.48494 374.10744,209.48494 378.26917,200.55305 378.26917,189.51619 378.26917,188.53056 378.20807,187.55736 378.14417,186.60994 377.07656,187.53485 375.92773,188.07869 374.70667,188.07869 370.0422,188.07869 366.45227,181.88438 365.80296,172.21638 z"
         style="fill:#000000;fill-opacity:1;stroke:#000000;stroke-width:1.60343301;stroke-miterlimit:4;stroke-opacity:1;stroke-dasharray:none"
         sodipodi:nodetypes="cssscsc" />
    </g>
    <path
       style="fill:#0000ff;fill-opacity:1;stroke:#000000;stroke-width:4.61288548;stroke-miterlimit:4;stroke-opacity:1;stroke-dasharray:none"
       d="M 289.12838,241.98206 C 294.73365,253.60487 304.09397,267.45744 315.28596,261.89926 325.8819,256.63707 322.57313,243.05249 317.88611,232.51748 320.86745,231.39032 323.87828,230.18411 326.88266,228.92927 332.05749,240.9965 342.43876,259.56468 355.12035,253.26673 368.96063,246.39333 359.08501,225.38007 353.40425,215.46046 355.74396,213.97342 357.97294,212.46519 360.06065,210.88418 369.14819,219.73677 387.85392,235.26628 397.5549,223.62496 409.29493,209.53673 382.58503,190.74608 376.85766,186.96275 377.32274,182.5212 376.35569,177.86516 373.63346,173.02591 366.25972,159.91777 352.40989,155.16796 336.50323,155.03283 335.44279,155.02483 334.3563,155.05413 333.27903,155.08483 295.35963,156.16633 247.7859,181.13847 247.7859,181.13847"
       id="path3039"
       inkscape:connector-curvature="0"
       sodipodi:nodetypes="csccsccscsssc" />
    <path
       style="fill:#000000;fill-opacity:1;stroke:#000000;stroke-width:4.61288548;stroke-miterlimit:4;stroke-opacity:1;stroke-dasharray:none"
       d="M 122.67957,173.28103 C 121.19273,171.81381 118.55637,172.05468 116.7631,173.87193 114.96986,175.68915 114.7275,178.36552 116.21435,179.83274 116.65039,180.26301 117.17783,180.49684 117.7641,180.63143 117.43377,179.22823 117.9097,177.52233 119.16909,176.24616 120.42842,174.97 122.09134,174.50838 123.49878,174.82003 123.35651,174.23562 123.1156,173.71132 122.67957,173.28103 z"
       id="path3824"
       inkscape:connector-curvature="0" />
    <path
       style="fill:#ffff00;fill-opacity:1;stroke:none"
       d="M 241.94442,305.08701 240.83678,339.97742 186.56282,352.71519 239.72916,344.96178 201.51585,359.36098 239.72916,349.39231 210.93071,375.42166 248.59021,346.62321 245.82828,336.10127 251.91312,303.97938"
       id="path3830"
       inkscape:connector-curvature="0"
       sodipodi:nodetypes="cccccccccc" />
  </g>
</svg>
